<?xml version="1.0" standalone="no"?>
<!DOCTYPE svg PUBLIC "-//W3C//DTD SVG 1.1//EN" "http://www.w3.org/Graphics/SVG/1.1/DTD/svg11.dtd">
<svg xmlns="http://www.w3.org/2000/svg">
<metadata>Generated by Fontastic.me</metadata>
<defs>
<font id="untitled-font-1" horiz-adv-x="512">
<font-face font-family="untitled-font-1" units-per-em="512" ascent="480" descent="-32"/>
<missing-glyph horiz-adv-x="512" />

<glyph unicode="&#97;" d="M320 288l0 128-128 0 0-128-96 0 160-192 160 192z"/>
<glyph unicode="&#98;" d="M384 179c21 0 39-7 54-22 15-14 23-33 23-55 0-21-8-39-23-54-15-15-33-22-54-22-21 0-39 7-54 22-15 15-23 33-23 54 0 2 0 5 1 8 0 2 0 4 0 6 0 0-133 80-133 80-14-11-30-17-47-17-21 0-39 8-54 23-15 15-23 33-23 54 0 21 8 39 23 54 15 15 33 23 54 23 18 0 34-5 47-16 0 0 133 80 133 80 0 2 0 4 0 6-1 3-1 5-1 7 0 21 8 39 23 54 15 15 33 22 54 22 21 0 39-7 54-22 15-14 23-33 23-54 0-22-8-40-23-55-15-15-33-22-54-22-18 0-33 5-46 16 0 0-134-80-134-80 0-2 1-7 1-13 0-5-1-10-1-12 0 0 134-80 134-80 12 10 28 15 46 15"/>
<glyph unicode="&#99;" d="M416 448l-320 0c-31 0-64-32-64-64l0-192c0-64 64-64 64-64l32 0 0-128 128 128c0 0 129 0 160 0 31 0 64 34 64 64l0 192c0 31-32 64-64 64z"/>
<glyph unicode="&#100;" d="M432 268l-85 86-1-1c-24 22-55 36-90 36-40 0-75-17-99-45l-80-79 0 0c-2-3-4-6-4-9 0-5 3-8 6-11l86-87 0 1c24-22 56-36 91-36 39 0 74 17 98 44l1 0 79 79c0 1 1 1 1 1l0 0c2 3 3 6 3 9 1 5-2 9-6 12z m-176-102c-50 0-90 40-90 90 0 50 40 90 90 90 49 0 89-40 89-90 0-50-40-90-89-90z m44 90c0-24-20-44-44-44-24 0-44 20-44 44 0 24 20 43 44 43 24 0 44-19 44-43z"/>
<glyph unicode="&#101;" d="M256 397c78 0 141-63 141-141 0-78-63-141-141-141-78 0-141 63-141 141 0 78 63 141 141 141m0 51c-106 0-192-86-192-192 0-106 86-192 192-192 106 0 192 86 192 192 0 106-86 192-192 192z m98-121l-20 20c-3 4-10 4-14 0l-64-64-35 36c-4 3-10 3-14 0l-20-20c-2-2-3-5-3-8 0-2 1-5 3-7l62-62c2-2 4-3 7-3 0 0 0 0 0 0 3 0 6 1 7 3l91 91c4 4 4 10 0 14z"/>
<glyph unicode="&#102;" d="M288 466c58 0 107-21 148-62 40-40 61-90 61-148 0-58-21-108-61-148-41-41-90-62-148-62-47 0-90 15-129 45 0 0 36 39 36 39 28-20 59-31 93-31 43 0 80 16 110 46 31 31 46 68 46 111 0 44-15 81-46 112-30 30-67 46-110 46-43 0-79-15-109-44-31-30-47-66-48-108 0 0 73 0 73 0 0 0-94-105-94-105 0 0-95 105-95 105 0 0 64 0 64 0 1 57 22 105 63 145 40 39 89 59 146 59m-19-97c0 0 36 0 36 0 0 0 0-105 0-105 0 0 67-66 67-66 0 0-26-26-26-26 0 0-77 77-77 77 0 0 0 120 0 120"/>
<glyph unicode="&#103;" d="M256 492c65 0 120-24 166-70 46-46 70-101 70-166 0-65-24-120-70-166-46-46-101-70-166-70-65 0-120 24-166 70-46 46-70 101-70 166 0 65 24 120 70 166 46 46 101 70 166 70m0-420c51 0 95 18 131 54 35 36 53 79 53 130 0 51-18 95-53 131-36 35-80 53-131 53-51 0-94-18-130-53-36-36-54-80-54-131 0-51 18-94 54-130 36-36 79-54 130-54m18 317c0 0 0-125 0-125 0 0 77-77 77-77 0 0-25-25-25-25 0 0-87 87-87 87 0 0 0 140 0 140 0 0 35 0 35 0"/>
<glyph unicode="&#104;" d="M494 327c0-4-3-9-8-14l-103-101 24-143c0-1 0-3 0-5 0-4-1-8-3-10-2-3-4-5-8-5-4 0-8 2-12 4l-128 67-128-67c-4-2-8-4-12-4-4 0-7 2-9 5-2 2-3 6-3 10 0 1 0 3 1 5l24 143-104 101c-4 6-7 10-7 14 0 7 6 12 16 13l144 21 64 130c4 8 8 12 14 12 6 0 10-4 14-12l64-130 144-21c10-1 16-6 16-13z"/>
<glyph unicode="&#105;" d="M350 445l-188 0c-8 0-15-7-15-16l0-351c0-6 5-11 11-11 3 0 6 1 8 3l0 0 82 83 1 0c1 2 4 3 7 3 3 0 6-1 8-3l0 0 81-82c2-2 5-4 9-4 6 0 11 5 11 11l0 351c0 9-7 16-15 16z"/>
<glyph unicode="&#106;" d="M292 353l74 0-9-81-65 0 0-235-97 0 0 235-49 0 0 81 49 0 0 49c0 35 8 61 24 79 17 18 44 26 81 26l65 0 0-81-40 0c-8 0-14 0-18-2-5-1-8-3-10-6-2-4-3-7-4-10 0-3-1-8-1-14z"/>
<glyph unicode="&#107;" d="M256 502c68 0 126-24 174-72 48-48 72-106 72-174 0-68-24-125-72-174-48-48-106-72-174-72-68 0-126 24-174 72-48 49-72 106-72 174 0 68 24 126 72 174 48 48 106 72 174 72m58-169c0 0 0 40 0 40 0 0-36 0-36 0-16 0-28-6-38-17-11-11-16-25-16-42 0 0 0-22 0-22 0 0-39 0-39 0 0 0 0-38 0-38 0 0 39 0 39 0 0 0 0-114 0-114 0 0 44 0 44 0 0 0 0 114 0 114 0 0 46 0 46 0 0 0 0 38 0 38 0 0-46 0-46 0 0 0 0 26 0 26 0 10 3 15 10 15 0 0 36 0 36 0"/>
<glyph unicode="&#108;" d="M453 378c-14-6-30-11-46-12 16 10 29 25 35 44-15-9-33-16-51-19-15 15-36 25-59 25-45 0-81-36-81-81 0-6 1-12 2-18-67 3-127 35-167 84-7-12-11-25-11-40 0-28 15-53 36-68-13 1-25 4-36 11 0-1 0-1 0-2 0-39 28-71 65-79-7-2-14-3-22-3-5 0-10 1-15 2 10-32 40-56 76-56-28-22-63-35-101-35-6 0-13 0-19 1 36-23 78-36 124-36 149 0 230 123 230 230 0 3 0 7 0 10 16 12 29 26 40 42z"/>
<glyph unicode="&#109;" d="M256 502c68 0 126-24 174-72 48-48 72-106 72-174 0-68-24-125-72-174-48-48-106-72-174-72-68 0-125 24-174 72-48 49-72 106-72 174 0 68 24 126 72 174 49 48 106 72 174 72m100-201c11 8 18 16 24 25-11-4-20-7-28-8 10 7 18 15 22 27-10-5-21-9-31-11-10 9-21 14-36 14-13 0-25-5-34-14-9-10-14-21-14-34 0-1 0-2 1-5 0-3 0-5 0-6-41 2-74 19-99 51-5-8-7-16-7-25 0-17 7-30 22-40-9 0-16 3-22 7 0 0 0-1 0-1 0-12 3-22 10-31 8-9 17-14 29-17-6-1-10-2-13-2-4 0-7 1-9 1 7-22 22-33 45-33-17-14-37-21-60-21 0 0-12 0-12 0 24-14 48-21 74-21 42 0 75 14 100 42 26 28 38 60 38 96 0 0 0 6 0 6"/>
<glyph unicode="&#110;" d="M51 370c0 19 4 37 13 52 9 15 18 26 29 33 10 7 22 13 35 18 13 4 23 7 29 7 6 1 10 1 13 1 0 0 118 0 118 0 0 0 0-2 0-2 0-7-14-13-40-18-10 0-16-1-20-3 14-7 23-17 28-29 5-12 7-29 7-49 0-35-11-62-35-81-13-13-19-22-19-28 0-6 8-17 25-32 36-31 54-62 54-92 0-47-20-80-60-99-23-11-48-17-76-17 0 0-2 0-2 0 0 0-3 1-3 1 0-1-1-1-2-1-8 0-17 1-27 2-10 2-23 6-39 11-15 5-28 15-38 29-9 14-14 32-14 53 0 20 5 38 16 52 11 14 25 23 43 29 17 5 32 9 45 11 12 2 24 3 36 3 0 0 1 0 1 0-6 8-10 16-12 24-3 9-4 15-4 20 0 0 1 7 1 7 0 0-8 0-8 0-21 0-40 6-56 16-25 15-38 42-38 82m190-232c-2 18-9 32-22 43-14 11-31 17-53 17 0 0-8 0-8 0-22-1-42-9-59-24-15-14-23-30-21-48 1-18 10-31 27-41 17-10 37-14 61-12 23 1 42 8 56 20 14 12 20 27 19 45m-31 256c-10 37-31 56-63 56-4 0-7-1-10-1-13-5-23-15-29-32-6-17-6-35-2-55 5-17 13-32 25-43 11-11 23-17 36-17 4 0 7 0 9 1 14 4 25 15 32 33 8 18 8 38 2 58m199-89c0 0 76 0 76 0 0 0 0-48 0-48 0 0-76 0-76 0 0 0 0-77 0-77 0 0-49 0-49 0 0 0 0 77 0 77 0 0-76 0-76 0 0 0 0 48 0 48 0 0 76 0 76 0 0 0 0 77 0 77 0 0 49 0 49 0 0 0 0-77 0-77"/>
<glyph unicode="&#111;" d="M232 326c3-11 3-20 0-30-3-9-8-14-16-16 0 0-5 0-5 0-14 0-25 10-31 30-2 11-1 20 1 28 4 8 9 13 16 15 0 1 2 1 5 1 15 0 25-9 30-28m24 176c68 0 126-24 174-72 48-48 72-106 72-174 0-68-24-125-72-174-48-48-106-72-174-72-68 0-125 24-174 72-48 49-72 106-72 174 0 68 24 126 72 174 49 48 106 72 174 72m-14-351c20 10 30 26 30 50 0 15-8 30-26 47-9 7-14 13-14 16 0 4 4 9 11 14 11 11 17 25 17 40 0 20-6 34-18 40 0 1 2 2 5 2 3 0 4 0 5 0 14 2 20 5 20 9 0 0 0 2 0 2 0 0-59 0-59 0-4 0-10-1-17-2-7-2-16-7-27-17-11-9-16-22-16-39 0-19 6-32 19-41 8-5 17-8 29-8 0 0 3 0 3 0-2-8 1-17 8-25 0 0-1 0-1 0-47 0-71-16-71-49 0-13 5-24 15-32 9-8 18-12 25-14 7-1 14-2 20-2 0 0 2 0 2 0 0 0 2 0 2 0 13 0 26 3 38 9m130 106c0 0 0 25 0 25 0 0-39 0-39 0 0 0 0 39 0 39 0 0-25 0-25 0 0 0 0-39 0-39 0 0-39 0-39 0 0 0 0-25 0-25 0 0 39 0 39 0 0 0 0-39 0-39 0 0 25 0 25 0 0 0 0 39 0 39 0 0 39 0 39 0m-161-30c11 0 20-3 27-8 6-6 10-14 11-22 1-9-3-17-10-23-7-6-16-9-28-10-12-2-22 0-31 5-9 6-13 13-14 21 0 9 4 18 11 25 7 7 17 11 30 12 0 0 4 0 4 0"/>
<glyph unicode="&#112;" d="M288 288l0 128-64 0 0-128-128 0 0-64 128 0 0-128 64 0 0 128 128 0 0 64z"/>
<glyph unicode="&#113;" d="M134 179c-24 0-45-20-45-45 0-24 21-44 45-44 25 0 45 20 45 44 0 25-20 45-45 45z m-13 124c-1 0-1 0-1 0l0 0-18 0 0 0c-9-1-15-8-16-17l0 0 0-32 1 0c1-8 7-14 15-15l0 0 18 0 0 0c0 0 0 0 1 0 65 0 118-53 119-118l0 0 0-18 0 0c1-9 8-15 17-16l0 0 32 0 0 1c8 1 14 7 15 15l0 0 0 18 0 0c-1 100-83 182-183 182z m305-182c-1 167-138 304-305 304-1 0-1 0-1 0l0 0-18 0 0-1c-9-1-15-8-16-17l0 0 0-31 1 0c1-8 7-15 15-16l0 0 18 0 0 0c0 0 0 0 1 0 132 0 240-107 240-239l0 0 0-18 0 0c1-9 9-15 17-16l0 0 32 0 0 1c8 1 14 7 15 15l1 0 0 18 0 0z"/>
<glyph unicode="&#114;" d="M384 128l-256 0 0 255 64 1 0 64-128 0 0-384 384 0 0 160-64 0z m-128 320l64-64-96-96 64-64 96 96 64-64 0 192z"/>
<glyph unicode="&#115;" d="M384 384l-69 0c24-16 47-45 54-64l15 0c32 0 64-32 64-64 0-32-33-64-64-64l-96 0c-32 0-64 32-64 64 0 11 3 22 9 32l-69 0c-2-11-4-21-4-32 0-64 64-128 128-128 64 0 32 0 96 0 64 0 128 64 128 128 0 64-64 128-128 128z m-240-192l-15 0c-33 0-64 32-64 64 0 32 32 64 64 64l96 0c31 0 64-32 64-64 0-12-4-23-9-32l68 0c3 10 4 21 4 32 0 64-63 128-127 128-64 0-33 0-97 0-64 0-128-64-128-128 0-64 64-128 128-128l69 0c-24 16-46 44-53 64z"/>
<glyph unicode="&#116;" d="M403 403c-39 38-101 40-141 3l0 0-52-51c-9-10-16-20-21-32-10-4-20-10-28-18l0 1-52-52c-40-40-40-105 0-145 40-40 105-40 145 0l52 52-1 0c8 8 14 18 18 28 12 5 22 12 32 21l52 52-1 0c37 40 35 102-3 141z m-184-257l0 0c-20-20-53-20-73 0-20 20-20 53 0 73l38 38c4-17 13-33 26-47 14-13 30-22 47-26z m28 101c-9 9-14 21-15 33 12-1 24-6 33-15 9-9 14-21 15-33-12 1-24 6-33 15z m122 49l-3-3 0 0-38-38c-4 17-13 33-26 47-14 13-30 22-47 26l38 38c0 0 0 0 0 0l0 0 3 3 0 0c21 17 51 16 70-3 19-19 20-49 3-70z"/>
<glyph unicode="&#117;" d="M136 333l0-283-94 0 0 283z m6 88c0-14-4-26-14-35-10-9-23-14-39-14l0 0c-16 0-29 5-38 14-10 9-14 21-14 35 0 14 4 26 14 35 10 9 23 14 39 14 16 0 28-5 38-14 9-9 14-21 14-35z m333-208l0-163-94 0 0 152c0 20-3 35-11 47-8 11-20 17-36 17-12 0-22-4-30-10-9-7-15-15-19-25-2-5-3-13-3-23l0-158-94 0c1 76 1 138 1 185 0 47 0 76 0 85l-1 13 94 0 0-41 0 0c4 6 7 12 11 16 4 5 10 10 17 15 6 5 15 10 24 13 10 3 21 4 33 4 33 0 59-11 79-32 20-22 29-54 29-95z"/>
<glyph unicode="&#118;" d="M256 502c68 0 126-24 174-72 48-48 72-106 72-174 0-68-24-125-72-174-48-48-106-72-174-72-68 0-125 24-174 72-48 49-72 106-72 174 0 68 24 126 72 174 49 48 106 72 174 72m-60-347c0 0 0 159 0 159 0 0-50 0-50 0 0 0 0-159 0-159 0 0 50 0 50 0m-25 180c18 0 27 8 27 24 0 17-9 25-27 25-7 0-14-2-19-7-5-5-8-11-8-18 0-16 9-24 27-24m207-180c0 0 0 94 0 94 0 22-5 40-16 52-11 11-24 17-41 17-23 0-39-8-50-25 0 0-1 0-1 0 0 0-3 21-3 21 0 0-43 0-43 0 1-9 1-26 1-51 0 0 0-108 0-108 0 0 50 0 50 0 0 0 0 92 0 92 0 6 1 10 3 12 4 13 12 20 25 20 16 0 25-12 25-35 0 0 0-89 0-89 0 0 50 0 50 0"/>
<glyph unicode="&#119;" d="M402 247l0 137c0 5-2 9-5 13-4 3-8 5-13 5l-137 0c-8 0-14-3-17-11-3-8-2-14 4-20l41-41-152-153c-4-3-6-7-6-12 0-5 2-10 6-13l29-29c3-4 8-6 13-6 5 0 9 2 12 6l153 152 41-41c4-4 8-5 13-5 2 0 5 0 7 1 8 3 11 9 11 17z m73 146l0-274c0-23-8-42-24-58-16-16-35-24-58-24l-274 0c-23 0-42 8-58 24-16 16-24 35-24 58l0 274c0 23 8 42 24 58 16 16 35 24 58 24l274 0c23 0 42-8 58-24 16-16 24-35 24-58z"/>
<glyph unicode="&#120;" d="M402 247l0-92c0-22-8-42-24-58-16-16-35-24-58-24l-238 0c-22 0-42 8-58 24-16 16-24 36-24 58l0 238c0 23 8 42 24 58 16 16 36 24 58 24l201 0c3 0 5 0 7-2 2-2 3-4 3-7l0-18c0-3-1-5-3-7-2-1-4-2-7-2l-201 0c-12 0-23-5-32-14-9-9-13-19-13-32l0-238c0-12 4-23 13-32 9-9 20-13 32-13l238 0c13 0 23 4 32 13 9 9 14 20 14 32l0 92c0 3 1 5 2 6 2 2 4 3 7 3l18 0c3 0 5-1 7-3 1-1 2-3 2-6z m110 247l0-147c0-5-2-9-5-12-4-4-8-6-13-6-5 0-10 2-13 6l-50 50-187-186c-2-2-4-3-6-3-3 0-5 1-7 3l-32 32c-2 2-3 4-3 7 0 2 1 4 3 6l186 187-50 50c-4 3-6 8-6 13 0 5 2 9 6 13 3 3 7 5 12 5l147 0c5 0 9-2 13-5 3-4 5-8 5-13z"/>
<glyph unicode="&#121;" d="M434 165c0 7-2 14-8 19l-59 59c-5 6-12 8-20 8-8 0-14-3-20-9 0 0 2-2 5-5 3-3 5-5 6-6 1-1 3-3 5-6 2-2 3-4 3-7 1-2 1-5 1-8 0-7-2-14-8-19-5-5-11-8-19-8-3 0-5 0-8 1-2 1-5 2-7 4-3 1-4 3-6 4-1 1-3 3-6 6-3 3-4 5-5 5-6-5-9-12-9-20 0-8 2-15 8-20l58-59c6-5 12-8 20-8 7 0 14 3 19 8l42 41c6 6 8 12 8 20z m-201 201c0 8-2 14-8 19l-58 60c-6 5-12 8-20 8-7 0-14-3-19-8l-42-42c-6-5-8-12-8-19 0-8 2-14 8-19l59-60c5-5 12-8 20-8 8 0 14 3 20 9 0 1-2 3-5 6-3 3-5 5-6 6-1 1-3 3-5 5-2 3-3 5-3 7-1 3-1 5-1 8 0 8 2 14 8 20 5 5 11 8 19 8 3 0 5-1 8-1 2-1 5-2 7-4 3-2 4-3 6-4 1-1 3-3 6-6 3-3 4-5 5-6 6 6 9 13 9 21z m256-201c0-23-8-43-24-58l-42-42c-16-16-35-24-58-24-23 0-43 8-58 24l-59 60c-16 15-24 35-24 58 0 23 8 43 25 59l-25 25c-16-16-36-25-59-25-23 0-43 8-59 24l-59 60c-16 16-24 35-24 58 0 23 8 42 24 58l42 42c16 16 35 23 58 23 23 0 43-8 58-24l59-59c16-16 24-35 24-58 0-23-8-43-25-60l25-25c16 17 36 25 59 25 23 0 43-8 59-24l59-59c16-16 24-36 24-58z"/>
<glyph unicode="&#122;" d="M498 14c-19-19-49-19-68 0l-85 85c-35-22-76-36-121-36-124 0-224 101-224 225 0 124 100 224 224 224 124 0 225-100 225-224 0-45-14-86-36-121l85-85c19-19 19-49 0-68z m-274 434c-88 0-160-72-160-160 0-89 72-161 160-161 89 0 161 72 161 161 0 88-72 160-161 160z"/>
<glyph unicode="&#65;" d="M291 459c-91 0-164-74-164-164 0-31 8-60 23-85l-79-79 0 0c-8-8-14-20-14-33 0-25 21-45 46-45 12 0 24 5 32 14l0-1 82 82c22-11 47-17 74-17 90 0 164 73 164 164 0 90-74 164-164 164z m1-263c-57 0-103 45-103 102 0 56 46 102 103 102 56 0 102-46 102-102 0-57-46-102-102-102z"/>
<glyph unicode="&#66;" d="M90 357l0 0c0-6 5-12 11-12l0 0 310 0 0 0c6 0 11 6 11 12l0 0 0 54c0 6-5 11-11 11l-310 0c-6 0-11-5-11-11 0-1 0-1 0-1z m321-63l-310 0c-6 0-11-5-11-11 0 0 0-1 0-1l0-53 0 0c0-6 5-11 11-11l0 0 310 0 0 0c6 0 11 5 11 11l0 0 0 54c0 6-5 11-11 11z m0-127l-310 0c-6 0-11-6-11-12 0 0 0 0 0-1l0-53 0 0c0-6 5-11 11-11l0 0 310 0 0 0c6 0 11 5 11 11l0 0 0 54c0 6-5 12-11 12z"/>
<glyph unicode="&#67;" d="M411 167l-182 0 0 0c0 0 0 0 0 0-6 0-11-6-11-12 0 0 0 0 0-1l0-53 0 0c0-6 5-11 11-11l0 0 182 0 0 0c6 0 11 5 11 11l0 53c0 1 0 1 0 1 0 6-5 12-11 12z m-256 0l-54 0c-6 0-11-6-11-12l0-54c0-6 5-11 11-11l54 0c6 0 12 5 12 11l0 54c0 6-6 12-12 12z m256 128l-182 0 0 0c0 0 0 0 0 0-6 0-11-6-11-12 0 0 0 0 0-1l0-53 0 0c0-6 5-11 11-11l0 0 182 0 0 0c6 0 11 5 11 11l0 53c0 1 0 1 0 1 0 6-5 12-11 12z m-256 0l-54 0c-6 0-11-6-11-12l0-54c0-6 5-11 11-11l54 0c6 0 12 5 12 11l0 54c0 6-6 12-12 12z m63 62l0 0c0-6 5-12 11-12l0 0 182 0 0 0c6 0 11 6 11 12l0 53c0 0 0 0 0 1 0 6-5 11-11 11l0 0-182 0 0 0c0 0 0 0 0 0-6 0-11-5-11-11 0-1 0-1 0-1l0-53z m-63 65l-54 0c-6 0-11-5-11-11l0-54c0-6 5-12 11-12l54 0c6 0 12 6 12 12l0 54c0 6-6 11-12 11z"/>
<glyph unicode="&#68;" d="M475 128l0-37c0-5-1-9-5-12-4-4-8-6-13-6l-402 0c-5 0-9 2-13 6-4 3-5 7-5 12l0 37c0 5 1 9 5 13 4 3 8 5 13 5l402 0c5 0 9-2 13-5 4-4 5-8 5-13z m0 146l0-36c0-5-1-10-5-13-4-4-8-6-13-6l-402 0c-5 0-9 2-13 6-4 3-5 8-5 13l0 36c0 5 1 10 5 13 4 4 8 6 13 6l402 0c5 0 9-2 13-6 4-3 5-8 5-13z m0 147l0-37c0-5-1-9-5-13-4-3-8-5-13-5l-402 0c-5 0-9 2-13 5-4 4-5 8-5 13l0 37c0 5 1 9 5 12 4 4 8 6 13 6l402 0c5 0 9-2 13-6 4-3 5-7 5-12z"/>
<glyph unicode="&#69;" d="M410 282c7 0 13-3 18-8 5-5 7-11 7-18 0-7-2-13-7-18-6-5-12-8-18-8 0 0-308 0-308 0-6 0-12 3-18 8-5 5-7 11-7 18 0 7 2 13 7 18 5 5 11 8 18 8 0 0 308 0 308 0m-308 51c-6 0-12 2-18 7-5 6-7 12-7 18 0 7 2 13 7 18 5 5 11 8 18 8 0 0 308 0 308 0 7 0 13-3 18-8 5-5 7-11 7-18 0-6-2-12-7-18-6-5-12-7-18-7 0 0-308 0-308 0m308-154c7 0 13-2 18-7 5-6 7-12 7-18 0-7-2-13-7-18-6-5-12-8-18-8 0 0-308 0-308 0-6 0-12 3-18 8-5 5-7 11-7 18 0 6 2 12 7 18 5 5 11 7 18 7 0 0 308 0 308 0"/>
<glyph unicode="&#70;" d="M416 256l-192 160 0-96-128 0 0-128 128 0 0-96z"/>
<glyph unicode="&#71;" d="M352 256l-128 96 0-64-64 0 0-64 64 0 0-64z"/>
<glyph unicode="&#72;" d="M260 113l187 133c3 2 5 6 5 10 0 0 0 0 0 0 0 5-2 9-5 11l-187 132c-4 3-9 4-13 1-4-2-7-6-7-11l0-62-167 0c-8 0-13-6-13-13l0-116c0-7 5-13 13-13l167 0 0-62c0-5 3-9 7-11 4-3 10-2 13 1z"/>
<glyph unicode="&#73;" d="M399 260l-133 187c-2 3-6 5-10 5 0 0 0 0 0 0-5 0-9-2-11-5l-132-187c-3-4-4-9-1-13 2-4 6-7 11-7l62 0 0-167c0-8 6-13 13-13l116 0c7 0 13 5 13 13l0 167 62 0c5 0 9 3 11 7 3 4 2 10-1 13z"/>
<glyph unicode="&#74;" d="M113 252l133-187c2-3 6-5 10-5 0 0 0 0 0 0 5 0 9 2 11 5l132 187c3 4 4 9 1 13-2 4-6 7-11 7l-62 0 0 167c0 8-6 13-13 13l-116 0c-7 0-13-5-13-13l0-167-62 0c-5 0-9-3-11-7-3-4-2-10 1-13z"/>
<glyph unicode="&#75;" d="M329 256c0-5-2-9-5-13l-128-128c-4-3-8-5-13-5-5 0-9 2-13 5-4 4-5 8-5 13l0 256c0 5 1 9 5 13 4 3 8 5 13 5 5 0 9-2 13-5l128-128c3-4 5-8 5-13z"/>
<glyph unicode="&#76;" d="M335 238c0-3-1-5-3-7l-133-133c-2-2-5-3-7-3-2 0-5 1-7 3l-14 14c-2 2-3 4-3 7 0 2 1 5 3 6l112 113-112 112c-2 2-3 4-3 7 0 2 1 4 3 6l14 14c2 2 5 3 7 3 2 0 5-1 7-3l133-133c2-2 3-4 3-6z"/>
<glyph unicode="&#77;" d="M344 357c0-3-1-5-3-7l-112-112 112-113c2-1 3-4 3-6 0-3-1-5-3-7l-14-14c-2-2-5-3-7-3-2 0-5 1-7 3l-133 133c-2 2-3 4-3 7 0 2 1 4 3 6l133 133c2 2 5 3 7 3 2 0 5-1 7-3l14-14c2-2 3-4 3-6z"/>
<glyph unicode="&#78;" d="M399 302c0-3-1-5-3-7l-133-133c-2-2-5-3-7-3-2 0-5 1-7 3l-133 133c-2 2-3 4-3 7 0 2 1 4 3 6l15 15c1 1 4 2 6 2 3 0 5-1 7-2l112-113 112 113c2 1 4 2 7 2 2 0 5-1 6-2l15-15c2-2 3-4 3-6z"/>
<glyph unicode="&#79;" d="M399 174c0-3-1-5-3-7l-15-14c-1-2-4-3-6-3-3 0-5 1-7 3l-112 112-112-112c-2-2-4-3-7-3-2 0-5 1-6 3l-15 14c-2 2-3 4-3 7 0 2 1 4 3 6l133 133c2 2 5 3 7 3 2 0 5-1 7-3l133-133c2-2 3-4 3-6z"/>
<glyph unicode="&#80;" d="M457 238c0-11-3-19-10-26l-186-186c-8-7-17-11-26-11-10 0-19 4-26 11l-22 21c-7 7-10 16-10 26 0 10 3 19 10 26l84 84-201 0c-10 0-18 3-24 11-6 7-9 15-9 25l0 37c0 10 3 19 9 26 6 7 14 11 24 11l201 0-84 84c-7 6-10 15-10 25 0 11 3 19 10 26l22 21c7 8 16 11 26 11 10 0 18-3 26-11l186-186c7-6 10-15 10-25z"/>
<glyph unicode="&#81;" d="M402 201c0-5-2-9-5-13l-128-128c-4-3-8-5-13-5-5 0-9 2-13 5l-128 128c-3 4-5 8-5 13 0 5 2 9 5 13 4 4 8 5 13 5l256 0c5 0 9-1 13-5 3-4 5-8 5-13z m0 110c0-5-2-9-5-13-4-4-8-5-13-5l-256 0c-5 0-9 1-13 5-3 4-5 8-5 13 0 5 2 9 5 13l128 128c4 3 8 5 13 5 5 0 9-2 13-5l128-128c3-4 5-8 5-13z"/>
<glyph unicode="&#82;" d="M479 235c0-10-4-19-11-26l-21-22c-8-7-16-10-26-10-11 0-19 3-26 10l-84 84 0-201c0-10-4-18-11-24-7-6-16-9-26-9l-36 0c-10 0-19 3-26 9-7 6-11 14-11 24l0 201-84-84c-7-7-15-10-26-10-10 0-18 3-25 10l-22 22c-7 7-11 16-11 26 0 10 4 18 11 26l186 186c7 7 16 10 26 10 10 0 19-3 26-10l186-186c7-8 11-17 11-26z"/>
<glyph unicode="&#83;" d="M475 256l0-37c0-10-3-18-9-25-6-8-14-11-24-11l-201 0 84-84c7-7 10-16 10-26 0-10-3-19-10-26l-22-21c-7-7-15-11-26-11-9 0-18 4-26 11l-186 186c-7 7-10 16-10 26 0 10 3 18 10 26l186 185c8 8 16 11 26 11 10 0 19-3 26-11l22-21c7-7 10-16 10-26 0-10-3-18-10-26l-84-83 201 0c10 0 18-4 24-11 6-7 9-16 9-26z"/>
<glyph unicode="&#84;" d="M479 274c0-10-4-18-11-25l-186-187c-7-7-16-10-26-10-10 0-19 3-26 10l-186 187c-7 6-11 15-11 25 0 10 4 19 11 26l21 22c8 7 17 10 26 10 11 0 19-3 26-10l84-84 0 201c0 10 4 18 11 26 7 7 16 10 26 10l36 0c10 0 19-3 26-10 7-8 11-16 11-26l0-201 84 84c7 7 15 10 26 10 9 0 18-3 26-10l21-22c7-7 11-16 11-26z"/>
<glyph unicode="&#85;" d="M512 283l0-54c0-3-1-5-3-7-1-2-3-3-6-3l-357 0 0-64c0-4-2-6-5-8-4-1-7-1-10 2l-110 100c-2 1-3 4-3 6 0 3 1 5 3 7l110 101c3 3 6 3 10 2 3-2 5-5 5-8l0-64 357 0c3 0 5-1 6-3 2-2 3-4 3-7z"/>
<glyph unicode="&#86;" d="M494 257c0-3-1-5-3-7l-110-101c-3-3-6-3-10-2-3 2-5 5-5 8l0 64-357 0c-3 0-5 1-6 3-2 2-3 4-3 7l0 54c0 3 1 5 3 7 1 2 3 3 6 3l357 0 0 64c0 4 2 6 5 8 4 1 7 1 10-2l110-100c2-1 3-4 3-6z"/>
<glyph unicode="&#87;" d="M405 274c0-10-3-18-10-26l-186-186c-7-7-16-10-26-10-10 0-19 3-26 10l-22 22c-7 7-10 16-10 26 0 10 3 18 10 25l139 139-139 139c-7 7-10 16-10 26 0 10 3 19 10 26l22 21c7 7 16 11 26 11 10 0 19-4 26-11l186-186c7-7 10-16 10-26z"/>
<glyph unicode="&#88;" d="M303 63l-186 186c-7 7-10 15-10 25 0 11 3 19 10 26l186 186c7 7 16 11 26 11 10 0 19-4 26-11l22-21c7-7 10-16 10-26 0-10-3-19-10-26l-139-139 139-138c7-8 10-16 10-26 0-10-3-19-10-26l-22-21c-7-7-16-11-26-11-10 0-19 4-26 11z"/>
<glyph unicode="&#89;" d="M479 165c0-11-4-19-11-26l-21-22c-8-7-16-10-26-10-11 0-19 3-26 10l-139 139-139-139c-7-7-15-10-26-10-10 0-18 3-25 10l-22 22c-7 7-11 15-11 26 0 10 4 18 11 26l186 186c7 7 16 10 26 10 10 0 19-3 26-10l186-186c7-8 11-16 11-26z"/>
<glyph unicode="&#90;" d="M479 311c0-10-4-19-11-26l-186-186c-7-7-16-11-26-11-10 0-19 4-26 11l-186 186c-7 7-11 16-11 26 0 10 4 19 11 26l21 21c8 7 17 11 26 11 11 0 19-4 26-11l139-139 139 139c7 7 15 11 26 11 9 0 18-4 26-11l21-21c7-8 11-16 11-26z"/>
<glyph unicode="&#48;" d="M219 397c0 0 116-121 116-121 5-5 8-12 8-20 0-8-3-14-8-19 0 0-116-121-116-121-5-6-12-8-20-8-9 0-15 2-21 8-12 12-12 26 0 41 0 0 95 99 95 99 0 0-95 100-95 100-12 15-12 29 0 41 6 6 13 9 21 9 9 0 15-3 20-9"/>
<glyph unicode="&#49;" d="M293 397c4 6 11 9 20 9 8 0 15-3 21-9 13-12 13-26 0-41 0 0-96-100-96-100 0 0 96-99 96-99 13-15 13-29 0-41-6-6-13-8-21-8-8 0-15 2-20 8 0 0-116 121-116 121-6 5-8 11-8 19 0 8 2 15 8 20 70 74 109 114 116 121"/>
<glyph unicode="&#50;" d="M107 213l192 0 0-96 138 139-138 139 0-96-193 0c-23 0-42-19-42-43 0-24 20-43 43-43z"/>
<glyph unicode="&#51;" d="M384 299l-192 0 0 96-139-139 139-139 0 96 193 0c23 0 42 19 42 43 0 24-20 43-43 43z"/>
<glyph unicode="&#52;" d="M299 107l0 192 96 0-139 138-139-138 96 0 0-193c0-23 19-42 43-42 24 0 43 20 43 43z"/>
<glyph unicode="&#53;" d="M213 384l0-192-96 0 139-139 139 139-96 0 0 193c0 23-19 42-43 42-24 0-43-20-43-43z"/>
<glyph unicode="&#54;" d="M256 0c-141 0-256 115-256 256 0 141 115 256 256 256 141 0 256-115 256-256 0-141-115-256-256-256z m0 448c-106 0-192-86-192-192 0-106 86-192 192-192 106 0 192 86 192 192 0 106-86 192-192 192z m-64-96l160-96-160-96z"/>
<glyph unicode="&#55;" d="M394 256c0 4-2 8-6 10l-252 146c-2 1-4 2-7 2-6 0-11-5-11-12 0 0 0-1 0-1l0 0 0-293 0 0c1-5 5-10 11-10 2 0 4 1 6 2l0 0 253 146 0 0c4 2 6 6 6 10z"/>
<glyph unicode="&#56;" d="M256 448c-106 0-192-86-192-192 0-106 86-192 192-192 106 0 192 86 192 192 0 106-86 192-192 192z m0-333c-78 0-141 63-141 141 0 78 63 141 141 141 78 0 141-63 141-141 0-78-63-141-141-141z m84 146l0 0-120 69 0 0c-1 0-2 0-3 0-3 0-5-2-5-5 0 0 0 0 0-1l0 0 0-138 0 0c0-2 3-4 5-4 1 0 2 0 3 0l0 0 120 69 0 0c1 1 2 3 2 5 0 2-1 4-2 5z"/>
<glyph unicode="&#57;" d="M438 99c14 0 25 11 25 26l0 262c0 15-11 26-25 26l-364 0c-14 0-25-11-25-26l0-262c0-15 11-26 25-26z m-26 51l-312 0 0 212 312 0z m-80 105l-61-36-62-35 0 141 62-35z"/>
<glyph unicode="&#33;" d="M256 475c40 0 77-9 110-29 34-20 60-46 80-80 20-33 29-70 29-110 0-40-9-77-29-110-20-34-46-60-80-80-33-20-70-29-110-29-40 0-77 9-110 29-34 20-60 46-80 80-20 33-29 70-29 110 0 40 9 77 29 110 20 34 46 60 80 80 33 20 70 29 110 29z m110-235c6 4 9 9 9 16 0 7-3 12-9 16l-156 91c-6 4-12 4-18 0-6-3-9-9-9-16l0-182c0-7 3-13 9-16 3-2 6-3 9-3 3 0 6 1 9 3z"/>
<glyph unicode="&#34;" d="M507 384c0 0-51 0-51 0 0 0 0-51 0-51 0 0 51 0 51 0 0 0 0-51 0-51 0 0-51 0-51 0 0 0 0-52 0-52 0 0 51 0 51 0 0 0 0-51 0-51 0 0-51 0-51 0 0 0 0-51 0-51 0 0 51 0 51 0 0 0 0-31 0-31 0-5-2-10-6-14-4-4-9-6-15-6 0 0-460 0-460 0-6 0-11 2-15 6-4 4-6 9-6 14 0 0 0 31 0 31 0 0 51 0 51 0 0 0 0 51 0 51 0 0-51 0-51 0 0 0 0 51 0 51 0 0 51 0 51 0 0 0 0 52 0 52 0 0-51 0-51 0 0 0 0 51 0 51 0 0 51 0 51 0 0 0 0 51 0 51 0 0-51 0-51 0 0 0 0 31 0 31 0 6 2 11 6 15 4 3 9 5 15 5 0 0 460 0 460 0 6 0 11-2 15-5 4-4 6-9 6-15 0 0 0-31 0-31m-307-205c0 0 128 77 128 77 0 0-128 77-128 77 0 0 0-154 0-154"/>
<glyph unicode="&#35;" d="M389 149l-25 0 0 15c0 7 5 12 12 12l1 0c7 0 12-5 12-12z m-95 32c-6 0-12-4-12-10l0-71c0-5 6-10 12-10 6 0 12 5 12 10l0 71c0 6-6 10-12 10z m154 40l0-136c0-33-28-59-63-59l-258 0c-35 0-63 26-63 59l0 136c0 32 28 59 63 59l258 0c35 0 63-27 63-59z m-304-151l0 143 32 0 0 21-85 1 0-21 26 0 0-144z m96 122l-27 0 0-76c0-12 1-17 0-19-2-6-12-12-15-1-1 2 0 8 0 19l-1 77-26 0 0-76c0-11 0-20 0-24 1-7 0-15 7-20 12-8 35 2 41 14l0-16 21 0 0 122z m85-88l0 64c0 24-18 39-42 19l0 47-27 0 0-163 22 0 2 11c28-26 46-8 45 22z m84 9l-20 0c0-1 0-2 0-3l0-11c0-6-5-11-11-11l-4 0c-6 0-11 5-11 11l0 29 46 0 0 17c0 13 0 26-1 33-4 23-36 26-52 15-5-4-9-9-11-15-2-7-3-16-3-27l0-38c0-63 76-54 67 0z m-103 206c2-4 4-6 7-8 3-2 6-3 11-3 4 0 7 1 10 3 3 2 5 5 7 9l0-10 30 0 0 127-24 0 0-99c0-5-4-10-10-10-5 0-9 5-9 10l0 99-25 0 0-86c0-11 0-18 1-22 0-3 1-7 2-10z m-90 71c0 12 1 22 3 29 2 7 6 12 11 16 5 4 12 6 20 6 7 0 13-1 18-4 5-2 9-6 11-10 3-4 5-9 6-13 1-5 1-12 1-21l0-32c0-12 0-20-1-26-1-5-3-10-6-15-3-5-7-8-11-11-5-2-10-3-16-3-7 0-13 1-18 3-4 2-8 5-11 9-2 4-4 8-5 14-1 5-2 14-2 25l0 33z m23-50c0-7 6-13 12-13 7 0 12 6 12 13l0 67c0 8-5 13-12 13-6 0-12-5-12-13z m-82-34l28 0 0 97 33 83-30 0-18-62-18 62-30 0 35-83z"/>
<glyph unicode="&#36;" d="M305 239c0-27-22-48-49-48-27 0-48 21-48 48 0 27 21 49 48 49 27 0 49-22 49-49z m139 149l0 0-85 0 0 15c0 10-9 19-19 19l-168 0c-10 0-19-9-19-19l0-15-85 0 0 0c-11 0-19-8-19-19l0-259c0-11 8-19 19-19l0-1 376 0 0 1c11 0 19 8 19 19l0 259c0 11-8 19-19 19z m-187-247c-54 0-98 44-98 98 0 55 44 99 98 99 55 0 99-44 99-99 0-54-44-98-99-98z m181 171l-76 0 0 51 76 0 0-51z"/>
<glyph unicode="&#37;" d="M477 420c0 12-10 23-23 23-1 0-2 0-3-1l0 1-393 0 0 0c-13 0-23-11-23-23l0-330 0 0c1-12 11-21 23-21l0 0 393 0 0 1c1-1 2-1 3-1 12 0 22 9 23 21l0 0 0 330z m-51-300l-55 0c0 1-1 2-1 2l0 0-116 202 0 0c-3 5-8 9-15 9-6 0-11-4-14-10l-77-134-19 33 0 0c-2 3-4 5-8 5-3 0-6-2-7-5l-28-48 0 218 340 0z m-26 194c0-28-23-51-51-51-29 0-52 23-52 51 0 29 23 52 52 52 28 0 51-23 51-52z"/>
<glyph unicode="&#38;" d="M265 274c0 3-1 5-2 7-2 2-4 2-7 2-13 0-23-4-32-13-9-9-14-20-14-32 0-3 1-5 3-7 2-2 4-2 6-2 3 0 5 0 7 2 2 2 3 4 3 7 0 7 2 14 8 19 5 5 11 8 19 8 3 0 5 1 7 3 1 1 2 4 2 6z m64-37c0-20-7-37-21-52-15-14-32-21-52-21-20 0-37 7-52 21-14 15-21 32-21 52 0 20 7 38 21 52 15 14 32 21 52 21 20 0 37-7 52-21 14-14 21-32 21-52z m-292-164l438 0 0 37-438 0z m329 164c0 30-11 56-32 78-22 21-48 32-78 32-30 0-56-11-78-32-21-22-32-48-32-78 0-30 11-56 32-77 22-22 48-33 78-33 30 0 56 11 78 33 21 21 32 47 32 77z m-293 184l110 0 0 36-110 0z m-36-55l438 0 0 73-236 0-18-37-184 0z m475 73l0-366c0-10-4-19-11-26-7-7-15-10-26-10l-438 0c-11 0-19 3-26 10-7 7-11 16-11 26l0 366c0 10 4 19 11 26 7 7 15 10 26 10l438 0c11 0 19-3 26-10 7-7 11-16 11-26z"/>
<glyph unicode="&#39;" d="M171 341c0-14-5-26-15-36-10-10-22-15-37-15-14 0-26 5-36 15-10 10-15 22-15 36 0 15 5 27 15 37 10 10 22 15 36 15 15 0 27-5 37-15 10-10 15-22 15-37z m273-102l0-120-376 0 0 52 86 85 42-43 137 137z m25 188l-426 0c-3 0-5-1-6-3-2-2-3-4-3-6l0-324c0-2 1-4 3-6 1-2 3-3 6-3l426 0c3 0 5 1 6 3 2 2 3 4 3 6l0 324c0 2-1 4-3 6-1 2-3 3-6 3z m43-9l0-324c0-12-4-22-13-30-8-9-18-13-30-13l-426 0c-12 0-22 4-30 13-9 8-13 18-13 30l0 324c0 12 4 22 13 30 8 9 18 13 30 13l426 0c12 0 22-4 30-13 9-8 13-18 13-30z"/>
<glyph unicode="&#40;" d="M438 342c0 0-51 0-51 0 0 0-63 77-63 77 0 0-110-77-110-77 0 0-92 0-92 0-18 0-33-7-46-20-13-13-19-29-19-47 0 0 0-81 0-81 0 0-56 151-56 151-3 13 1 22 11 27 0 0 349 127 349 127 12 3 20-1 25-13 0 0 52-144 52-144m55-46c5 0 10-2 14-6 3-4 5-9 5-15 0 0 0-241 0-241 0-6-2-10-5-15-4-4-9-6-14-6 0 0-371 0-371 0-5 0-10 2-14 6-4 5-5 9-5 15 0 0 0 241 0 241 0 6 1 11 5 15 4 4 9 6 14 6 0 0 371 0 371 0m-29-231c0 0 0 82 0 82 0 0-37 82-37 82 0 0-85-30-85-30 0 0-66-68-66-68 0 0-71 87-71 87 0 0-47-109-47-109 0 0 0-44 0-44 0 0 306 0 306 0"/>
<glyph unicode="&#41;" d="M448 378l0 49-384 0 0-49-64-21 0-202 64-21 0-49 384 0 0 49 64 21 0 202z m-384-199l-21 7 0 140 21 7z m341-51l-298 0 0 256 298 0z m64 58l-21-7 0 154 21-7z m-85 177l-256 0 0-214 256 0z m-21-192l-214 0 0 170 214 0z"/>
<glyph unicode="&#42;" d="M256 316c21 0 39-8 54-23 15-15 23-33 23-54 0-21-8-39-23-54-15-15-33-23-54-23-21 0-39 8-54 23-15 15-23 33-23 54 0 21 8 39 23 54 15 15 33 23 54 23z m188 111c19 0 35-7 48-20 13-14 20-30 20-49l0-239c0-18-7-34-20-48-13-13-29-20-48-20l-376 0c-19 0-35 7-48 20-13 14-20 30-20 48l0 239c0 19 7 35 20 49 13 13 29 20 48 20l60 0 14 36c3 9 9 16 18 22 9 7 18 10 28 10l136 0c10 0 19-3 28-10 9-6 15-13 18-22l14-36z m-188-308c33 0 61 12 84 36 24 23 35 51 35 84 0 33-11 61-35 84-23 24-51 35-84 35-33 0-61-11-84-35-24-23-35-51-35-84 0-33 11-61 35-84 23-24 51-36 84-36z"/>
<glyph unicode="&#43;" d="M178 224l-105-105-41 41c-18 0-32-14-32-32l0-96c0-18 14-32 32-32l96 0c18 0 32 14 32 32l-41 41 105 105z m302 288l-96 0c-18 0-32-14-32-32l41-41-105-105 46-46 105 105 41-41c18 0 32 14 32 32l0 96c0 18-14 32-32 32z m0-352l-41-41-105 105-46-46 105-105-41-41c0-18 14-32 32-32l96 0c18 0 32 14 32 32l0 96c0 18-14 32-32 32z m-320 320c0 18-14 32-32 32l-96 0c-18 0-32-14-32-32l0-96c0-18 14-32 32-32l41 41 105-105 46 46-105 105z"/>
<glyph unicode="&#45;" d="M75 75c-100 100-100 262 0 362 100 100 262 100 362 0 100-100 100-262 0-362-100-100-262-100-362 0z m317 317c-75 75-197 75-272 0-75-75-75-197 0-272 75-75 197-75 272 0 75 75 75 197 0 272z m-204-249l-45 45 68 68-68 68 45 45 68-68 68 68 45-45-68-68 68-68-45-45-68 68z"/>
<glyph unicode="&#46;" d="M503 380l-123 123c-12 12-30 12-41 0l-124-123c-12-12-12-30 0-42l20-20 124 124 83-83-124-124 21-20c11-12 29-12 41 0l123 123c12 12 12 30 0 42z m-226-186l-124-124-83 83 124 124-20 20c-12 12-30 12-42 0l-123-123c-12-12-12-30 0-42l123-123c12-12 30-12 42 0l123 123c12 12 12 30 0 42z m-103-20c11-12 29-12 41 0l124 123c11 12 11 30 0 41-12 12-30 12-42 0l-123-123c-12-12-12-30 0-41z"/>
<glyph unicode="&#47;" d="M256 0c-141 0-256 115-256 256 0 141 115 256 256 256 141 0 256-115 256-256 0-141-115-256-256-256z m0 448c-106 0-192-86-192-192 0-106 86-192 192-192 106 0 192 86 192 192 0 106-86 192-192 192z m32-320l-64 0 0 96-96 0 0 64 96 0 0 96 64 0 0-96 96 0 0-64-96 0z"/>
<glyph unicode="&#58;" d="M256 512c-141 0-256-115-256-256 0-141 115-256 256-256 141 0 256 115 256 256 0 141-115 256-256 256z m0-448c-106 0-192 86-192 192 0 106 86 192 192 192 106 0 192-86 192-192 0-106-86-192-192-192z m-128 160l256 0 0 64-256 0z"/>
<glyph unicode="&#59;" d="M498 14c-19-19-49-19-68 0l-85 85c-35-22-76-36-121-36-124 0-224 101-224 225 0 124 100 224 224 224 124 0 225-100 225-224 0-45-14-86-36-121l85-85c19-19 19-49 0-68z m-274 434c-88 0-160-72-160-160 0-89 72-161 160-161 89 0 161 72 161 161 0 88-72 160-161 160z m32-257l-64 0 0 65-64 0 0 64 64 0 0 64 64 0 0-64 65 0 0-64-65 0z"/>
<glyph unicode="&#60;" d="M498 82l-85 85c22 35 36 76 36 121 0 124-101 224-225 224-124 0-224-100-224-224 0-124 100-225 224-225 45 0 86 14 121 36l85-85c19-19 49-19 68 0 19 19 19 49 0 68z m-274 45c-88 0-160 72-160 161 0 88 72 160 160 160 89 0 161-72 161-160 0-89-72-161-161-161z m-96 129l193 0 0 64-193 0z"/>
<glyph unicode="&#61;" d="M382 267c1 7 2 14 2 21l0 96c0 71-57 128-128 128-71 0-128-57-128-128l0-96c0-7 1-14 2-21-77-28-130-79-130-139l0-96c0-18 14-32 32-32l448 0c18 0 32 14 32 32l0 96c0 60-53 111-130 139z m-190 117c0 35 29 64 64 64 35 0 64-29 64-64l0-96c0-35-29-64-64-64-35 0-64 29-64 64z m256-320l-384 0 0 64c0 35 37 65 92 81 23-29 59-49 100-49 41 0 77 20 100 49 55-16 92-46 92-81z"/>
<glyph unicode="&#62;" d="M480 249c6-6 8-10 6-14-2-4-6-6-14-6 0 0-43 0-43 0 0 0 0-158 0-158 0-5 0-9 0-11-1-2-2-5-4-7-3-2-7-3-12-3 0 0-105 0-105 0 0 0 0 159 0 159 0 0-104 0-104 0 0 0 0-159 0-159 0 0-99 0-99 0-10 0-16 2-18 5-3 4-4 9-4 16 0 0 0 158 0 158 0 0-43 0-43 0-7 0-12 2-14 6-1 4 0 8 6 14 0 0 205 206 205 206 5 5 12 8 19 8 8 0 14-3 20-8 0 0 204-206 204-206"/>
<glyph unicode="&#63;" d="M428 318l-167 129c-4 4-11 4-16 0l-161-129c-3-2-5-6-5-10l0-233c0-7 6-13 13-13l96 0c7 0 13 6 13 13l0 143 110 0 0-143c0-7 6-13 13-13l96 0c7 0 13 6 13 13l0 233c0 4-2 8-5 10z"/>
<glyph unicode="&#64;" d="M503 112l-219 383c-6 10-17 16-28 16-11 0-22-6-28-16l-219-383c-6-10-6-22 0-32 6-10 16-16 28-16l438 0c12 0 22 6 28 16 6 10 6 22 0 32z m-215 16l-64 0 0 64 64 0z m0 96l-64 0 0 128 64 0z"/>
<glyph unicode="&#91;" d="M256 475c40 0 77-9 110-29 34-20 60-46 80-80 20-33 29-70 29-110 0-40-9-77-29-110-20-34-46-60-80-80-33-20-70-29-110-29-40 0-77 9-110 29-34 20-60 46-80 80-20 33-29 70-29 110 0 40 9 77 29 110 20 34 46 60 80 80 33 20 70 29 110 29z m37-356l0 54c0 3-1 5-3 7-2 2-4 3-6 3l-55 0c-3 0-5-1-7-3-2-2-3-4-3-7l0-54c0-2 1-5 3-6 2-2 4-3 7-3l55 0c2 0 4 1 6 2 2 2 3 4 3 7z m-1 98l5 178c0 2-1 4-3 5-2 2-4 2-7 2l-62 0c-3 0-5 0-7-2-2-1-3-3-3-5l5-178c0-1 1-3 3-5 1-1 4-2 6-2l53 0c3 0 5 1 7 2 2 2 3 4 3 5z"/>
<glyph unicode="&#93;" d="M149 172l30-30c20 20 47 32 77 32 30 0 57-12 77-32l30 30c-27 28-65 45-107 45-42 0-80-17-107-45z m-69 69l30-30c38 37 89 60 146 60 57 0 108-23 146-60l30 30c-45 45-107 73-176 73-69 0-131-28-176-73z m176 170c-96 0-182-38-245-101l31-30c55 55 130 89 214 89 84 0 159-34 214-89l31 30c-63 63-149 101-245 101z m0-283c-18 0-32-14-32-32 0-18 14-32 32-32 18 0 32 14 32 32 0 18-14 32-32 32z"/>
<glyph unicode="&#95;" d="M238 238l0-110c0-15-6-28-16-39-11-11-24-16-39-16l-110 0c-15 0-28 5-39 16-10 11-16 24-16 39l0 201c0 20 4 39 12 57 8 18 18 33 31 47 13 13 29 23 47 31 18 8 37 11 57 11l18 0c5 0 9-1 13-5 3-4 5-8 5-13l0-36c0-5-2-10-5-13-4-4-8-6-13-6l-18 0c-21 0-38-7-52-21-14-14-22-32-22-52l0-9c0-8 3-14 8-19 6-6 12-8 20-8l64 0c15 0 28-6 39-16 10-11 16-24 16-39z m256 0l0-110c0-15-6-28-16-39-11-11-24-16-39-16l-110 0c-15 0-28 5-39 16-10 11-16 24-16 39l0 201c0 20 4 39 12 57 8 18 18 33 31 47 13 13 29 23 47 31 18 8 37 11 57 11l18 0c5 0 9-1 13-5 3-4 5-8 5-13l0-36c0-5-2-10-5-13-4-4-8-6-13-6l-18 0c-21 0-38-7-52-21-14-14-22-32-22-52l0-9c0-8 3-14 8-19 6-6 12-8 20-8l64 0c15 0 28-6 39-16 10-11 16-24 16-39z"/>
<glyph unicode="&#96;" d="M238 421l0-202c0-19-4-38-12-56-8-18-18-34-31-47-13-13-29-24-47-31-18-8-37-12-57-12l-18 0c-5 0-9 2-13 6-3 3-5 7-5 12l0 37c0 5 2 9 5 13 4 3 8 5 13 5l18 0c21 0 38 7 52 22 14 14 22 31 22 51l0 10c0 7-3 14-8 19-6 5-12 8-20 8l-64 0c-15 0-28 5-39 16-10 11-16 24-16 39l0 110c0 15 6 28 16 38 11 11 24 16 39 16l110 0c15 0 28-5 39-16 10-10 16-23 16-38z m256 0l0-202c0-19-4-38-12-56-8-18-18-34-31-47-13-13-29-24-47-31-18-8-37-12-57-12l-18 0c-5 0-9 2-13 6-3 3-5 7-5 12l0 37c0 5 2 9 5 13 4 3 8 5 13 5l18 0c21 0 38 7 52 22 14 14 22 31 22 51l0 10c0 7-3 14-8 19-6 5-12 8-20 8l-64 0c-15 0-28 5-39 16-10 11-16 24-16 39l0 110c0 15 6 28 16 38 11 11 24 16 39 16l110 0c15 0 28-5 39-16 10-10 16-23 16-38z"/>
<glyph unicode="&#123;" d="M96 256l0-128 128 0 0 128-64 0c0 0 0 64 64 64l0 64c0 0-128 0-128-128z m320 64l0 64c0 0-128 0-128-128l0-128 128 0 0 128-64 0c0 0 0 64 64 64z"/>
<glyph unicode="&#124;" d="M90 288c-4 0-8 0-10-1 4 18 22 39 38 48 0 0 0 0 0 0 0 0 0 0 1 0l0 0c1 1 3 3 3 5 0 2-1 4-3 5l0 0-21 13 0 0c-1 1-2 2-4 2-1 0-2-1-2-1l0 0c-33-23-54-57-54-96 0-34 22-53 46-53 22 0 41 19 41 41 0 22-15 37-35 37z m105 0c-4 0-8 0-10-1 4 18 22 39 38 48 0 0 0 0 0 0 1 0 1 0 1 0l0 0c2 1 3 3 3 5 0 2-1 4-3 5l0 0-21 13 0 0c-1 1-2 2-4 2-1 0-1-1-2-1l0 0c-32-23-54-57-54-96 0-34 22-53 46-53 23 0 41 19 41 41 0 22-15 37-35 37z m128 14c-23 0-41-19-41-41 0-22 15-37 35-37 4 0 8 0 10 1-4-18-22-39-38-48 0 0 0 0 0 0-1 0-1 0-1 0l0 0c-2-1-3-3-3-5 0-2 1-4 3-5l0 0 21-13 0 0c1-1 2-2 4-2 1 0 1 1 2 1l0 0c32 23 54 57 54 96 0 34-22 53-46 53z m105 0c-22 0-41-19-41-41 0-22 15-37 35-37 4 0 8 0 10 1-4-18-22-39-38-48 0 0 0 0 0 0 0 0 0 0-1 0l0 0c-1-1-3-3-3-5 0-2 1-4 3-5l0 0 21-13 0 0c1-1 2-2 4-2 1 0 2 1 2 1l0 0c33 23 54 57 54 96 0 34-22 53-46 53z"/>
<glyph unicode="&#94;" d="M136 425c50 0 81-25 94-75 13-48 6-99-21-154-27-58-65-93-114-105-11-3-22-4-34-4 0 0 0 36 0 36 38 0 69 18 93 55 19 30 23 54 13 75-5 12-16 18-31 18-21 0-38 8-53 23-15 15-22 33-22 54 0 21 7 39 22 54 15 15 32 23 53 23m215 0c50 0 81-25 94-75 13-48 6-99-21-154-27-58-65-93-114-105-11-3-22-4-34-4 0 0 0 36 0 36 38 0 69 18 93 55 19 30 23 54 13 75-5 12-16 18-31 18-21 0-38 8-53 23-15 15-22 33-22 54 0 21 7 39 22 54 15 15 32 23 53 23"/>
<glyph unicode="&#125;" d="M225 352l-48-128c14 0 28-1 44-1 15 0 26 0 34 0 7 0 12 0 15 0l8 0c-6 18-15 41-26 69-10 25-19 45-27 60z m-201-315l-6 0 1 22c4 1 12 3 23 5 17 3 27 6 31 9 4 3 9 10 14 20l68 176 80 206 36 0 3-6 59-137c19-46 31-74 35-85 8-19 17-41 28-67 5-11 11-26 18-47 5-12 11-27 19-42 4-9 7-15 10-16 4-4 11-6 20-7 9-1 18-4 29-8 1-7 2-13 2-16 0-3 0-5-1-7-15 0-33 0-54 2-18 1-36 2-54 2-15 0-28 0-39 0l-57-4-17 0c0 8 1 16 1 22l38 8c11 3 17 5 19 7 3 2 4 5 4 7 0 3-1 6-2 10l-13 32-27 65-128 1c-6-13-16-39-30-78-4-13-7-21-7-24 0-6 2-10 5-13 5-4 15-7 30-9 0 0 2 0 4 0 2-1 4-1 8-2 4 0 8-1 12-2 0-5 0-10 0-16 0-3 0-6-1-8-12 0-45 2-99 6l-14-2c-15-3-31-4-48-4z"/>
<glyph unicode="&#126;" d="M256 238l0-128c0-5-2-10-5-13-4-4-8-6-13-6-5 0-10 2-13 6l-41 41-95-95c-2-2-4-3-7-3-2 0-4 1-6 3l-33 33c-2 2-3 4-3 6 0 3 1 5 3 7l95 95-41 41c-4 3-6 8-6 13 0 5 2 9 6 13 3 3 8 5 13 5l128 0c5 0 9-2 13-5 3-4 5-8 5-13z m216 192c0-3-1-5-3-7l-95-95 41-41c4-3 6-8 6-13 0-5-2-9-6-13-3-3-8-5-13-5l-128 0c-5 0-9 2-13 5-3 4-5 8-5 13l0 128c0 5 2 10 5 13 4 4 8 6 13 6 5 0 10-2 13-6l41-41 95 95c2 2 4 3 7 3 2 0 4-1 6-3l33-33c2-2 3-4 3-6z"/>
<glyph unicode="&#92;" d="M252 210c0-2-1-4-3-6l-94-95 41-41c3-4 5-8 5-13 0-5-2-9-5-13-4-4-8-5-13-5l-128 0c-5 0-9 1-13 5-4 4-5 8-5 13l0 128c0 5 1 9 5 13 4 3 8 5 13 5 5 0 9-2 13-5l41-41 95 94c2 2 4 3 6 3 3 0 5-1 7-3l32-32c2-2 3-4 3-7z m223 247l0-128c0-5-1-9-5-13-4-3-8-5-13-5-5 0-9 2-13 5l-41 41-95-94c-2-2-4-3-6-3-3 0-5 1-7 3l-32 32c-2 2-3 4-3 7 0 2 1 4 3 6l94 95-41 41c-3 4-5 8-5 13 0 5 2 9 5 13 4 4 8 5 13 5l128 0c5 0 9-1 13-5 4-4 5-8 5-13z"/>
<glyph unicode="&#57344;" d="M426 134c0-7-3-14-8-19l-39-39c-5-5-12-8-20-8-7 0-14 3-19 8l-84 84-84-84c-5-5-12-8-19-8-8 0-15 3-20 8l-39 39c-5 5-8 12-8 19 0 8 3 14 8 20l84 84-84 84c-5 5-8 12-8 19 0 8 3 14 8 20l39 38c5 6 12 8 20 8 7 0 14-2 19-8l84-84 84 84c5 6 12 8 19 8 8 0 15-2 20-8l39-38c5-6 8-12 8-20 0-7-3-14-8-19l-84-84 84-84c5-6 8-12 8-20z"/>
<glyph unicode="&#57345;" d="M256 399c31 0 62-4 91-12 29-9 53-20 72-32 19-13 36-26 51-40 14-13 25-25 32-36 7-11 10-18 10-23 0-5-3-12-10-23-7-10-18-22-32-36-15-14-32-27-51-40-19-12-43-23-72-32-29-8-60-12-91-12-31 0-62 4-91 12-29 9-53 20-72 32-19 13-36 26-51 40-14 14-25 26-32 36-7 11-10 18-10 23 0 5 3 12 10 23 7 11 18 23 32 36 15 14 32 27 51 40 19 12 43 23 72 32 29 8 60 12 91 12m0-253c31 0 58 11 80 33 23 21 34 47 34 77 0 31-11 57-34 78-22 22-49 33-80 33-31 0-58-11-80-33-23-21-34-47-34-78 0-30 11-56 34-77 22-22 49-33 80-33m0 110c3-3 9-3 19-1 10 2 18 4 26 6 7 1 11 0 12-5 0-15-5-28-17-38-11-11-24-16-40-16-16 0-29 5-40 16-11 10-16 23-16 38 0 16 5 29 16 39 11 11 24 16 40 16 5 0 6-4 5-11-1-8-3-16-6-25-3-8-2-14 1-19"/>
<glyph unicode="&#57346;" d="M457 158c0-5-1-12-3-20-2-9-4-15-6-20-4-10-15-20-35-30-17-10-35-15-53-15-5 0-10 0-15 1-5 1-10 2-16 4-6 1-11 3-14 4-3 1-8 3-16 6-7 3-12 4-14 5-18 7-35 14-50 24-24 15-49 35-75 61-26 26-47 51-62 76-9 14-17 31-23 50-1 1-3 6-6 14-2 7-4 13-5 16-1 3-3 7-5 13-1 6-2 12-3 17-1 4-1 9-1 15 0 17 5 35 14 53 11 19 21 31 31 35 4 2 11 4 19 6 9 1 15 2 20 2 3 0 5 0 6 0 4-2 9-9 16-22 2-4 5-9 8-16 4-6 7-12 10-18 3-5 6-10 9-15 1-1 2-3 5-7 3-4 5-8 6-10 1-3 2-6 2-8 0-4-3-9-8-15-5-5-11-11-18-15-6-5-12-10-17-16-6-5-9-9-9-13 0-1 1-4 2-6 1-3 2-5 2-6 1-1 2-4 4-7 2-3 3-5 4-5 14-26 31-49 49-67 19-19 41-36 67-50 1 0 3-1 6-3 3-2 5-4 7-4 1-1 3-2 6-3 2-1 4-1 6-1 3 0 8 2 13 8 5 5 11 11 15 18 5 6 10 12 16 17 6 6 10 8 14 8 3 0 6 0 8-2 3-1 7-3 11-6 4-2 6-4 7-5 4-3 10-6 15-9 5-3 11-6 18-10 7-3 12-6 16-8 13-7 20-12 21-15 1-2 1-4 1-6z"/>
<glyph unicode="&#57347;" d="M486 260c0-124-101-225-226-225-39 0-77 11-109 28l-125-39 40 120c-20 34-32 73-32 116 0 124 101 224 226 224 125 0 226-100 226-224z m-226 189c-105 0-190-85-190-189 0-41 13-80 36-111l-24-70 74 23c30-19 66-31 104-31 105 0 190 85 190 189 0 104-85 189-190 189z m114-241c-1 2-5 4-10 7-6 2-33 16-38 17-5 2-9 3-13-2-3-6-14-18-17-22-3-4-7-4-12-1-6 3-24 8-45 27-16 15-27 33-31 38-3 6 0 9 3 11 2 3 5 7 8 10 3 3 4 6 6 9 2 4 1 7-1 10-1 3-12 30-17 41-4 11-9 9-12 9-4 0-7 0-11 0-4 0-10-1-15-7-5-5-19-18-19-45 0-28 20-54 22-57 3-4 39-61 95-83 57-22 57-15 67-14 10 1 33 13 37 26 5 13 5 24 3 26z"/>
<glyph unicode="&#57348;" d="M512 309l0-227c0-12-4-23-13-32-9-9-20-13-33-13l-420 0c-13 0-24 4-33 13-9 9-13 20-13 32l0 227c8-9 18-17 29-25 69-47 116-79 142-98 11-8 20-15 26-19 7-4 16-9 27-14 12-4 22-7 32-7l0 0c10 0 20 3 32 7 11 5 20 10 27 14 6 4 15 11 26 19 33 23 80 56 142 98 11 8 21 16 29 25z m0 84c0-15-5-29-14-43-9-14-21-25-35-35-71-50-116-81-134-93-1-1-6-4-12-9-6-4-11-8-15-11-4-2-9-5-15-9-6-3-11-6-16-8-6-1-10-2-15-2l0 0c-5 0-9 1-15 2-5 2-10 5-16 8-6 4-11 7-15 9-4 3-9 7-15 11-6 5-11 8-12 9-18 12-43 30-75 52-33 23-52 36-59 41-12 8-23 19-33 33-11 14-16 27-16 39 0 15 4 27 12 37 8 10 19 15 34 15l420 0c13 0 23-5 32-14 9-9 14-19 14-32z"/>
<glyph unicode="&#57349;" d="M440 409l-368 0c-7 0-13-6-13-13l0-27c0-1 1-2 2-3l194-110c0-1 1-1 1-1 1 0 2 0 2 1l188 110c1 1 3 2 5 3 1 1 2 1 2 3l0 24c0 7-6 13-13 13z m11-80c-1 1-2 1-3 0l-106-62c-1 0-1-1-2-2 0-1 1-2 1-3l106-115c1 0 2-1 3-1 0 0 1 1 1 1 1 0 2 1 2 3l0 177c0 1 0 2-2 2z m-140-83c-1 1-2 1-4 1l-42-25c-5-3-12-3-17-1l-37 22c-1 1-3 0-4-1l-142-131c-1-1-1-2-1-3 0-1 1-2 1-3 3-1 5-2 7-2l364 0c2 0 3 1 3 2 1 2 1 3 0 4z m-135 12c1 1 1 2 1 3 0 1-1 2-2 2l-111 64c-1 1-2 0-4 0-1-1-1-2-1-3l0-167c0-1 1-2 2-3 0 0 1 0 1 0 1 0 2 0 2 1z"/>
<glyph unicode="&#44;" d="M480 448l-448 0c-18 0-32-14-32-32l0-320c0-18 14-32 32-32l448 0c18 0 32 14 32 32l0 320c0 18-14 32-32 32z m-64-64l-160-128-160 128z m32-256l-384 0 0 224 192-160 192 160z"/>
</font></defs></svg>
